[
    {
        "name": "assets_parameters", 
        "value": null
    }, 
    {
        "name": "assets_types", 
        "value": [
            "char", 
            "env", 
            "prop", 
            "mech"
        ]
    }, 
    {
        "name": "assets_steps", 
        "value": [
            "modeling", 
            "rigging", 
            "shading"
        ]
    }, 
    {
        "name": "assets_lod", 
        "value": [
            "low", 
            "mid", 
            "high", 
            "render"
        ]
    }, 
    {
        "name": "assets_root", 
        "value": [
            "{PROJECT_ROOT}", 
            "assets"
        ]
    }
]