[
    {
        "name": "shots_parameters", 
        "value": null
    }, 
    {
        "name": "shots_steps", 
        "value": [
            "layout", 
            "animation", 
            "lighting", 
            "effects", 
            "cfx", 
            "comp"
        ]
    }, 
    {
        "name": "shots_root", 
        "value": [
            "{PROJECT_ROOT}", 
            "shots"
        ]
    }, 
    {
        "name": "data_root", 
        "value": [
            "{PROJECT_ROOT}", 
            "data"
        ]
    }, 
    {
        "name": "render_root", 
        "value": [
            "{PROJECT_ROOT}", 
            "render"
        ]
    }, 
    {
        "name": "tier_names", 
        "value": [
            "season", 
            "episode", 
            "sequence", 
            "shot"
        ]
    }, 
    {
        "name": "tier_patterns", 
        "value": [
            "sn##", 
            "ep##", 
            "seq##", 
            "sh###"
        ]
    }
]